%YAML 1.1
%TAG !u! tag:unity3d.com,2011:
--- !u!1 &2604346473654797245
GameObject:
  m_ObjectHideFlags: 0
  m_CorrespondingSourceObject: {fileID: 0}
  m_PrefabInstance: {fileID: 0}
  m_PrefabAsset: {fileID: 0}
  serializedVersion: 6
  m_Component:
  - component: {fileID: 2604346473654797219}
  - component: {fileID: 2604346473654797218}
  - component: {fileID: 2604346473654797217}
  - component: {fileID: 2604346473654797216}
  - component: {fileID: 2604346473654797246}
  - component: {fileID: 2604346473654797247}
  m_Layer: 0
  m_Name: UFO2
  m_TagString: Player
  m_Icon: {fileID: 0}
  m_NavMeshLayer: 0
  m_StaticEditorFlags: 0
  m_IsActive: 1
--- !u!4 &2604346473654797219
Transform:
  m_ObjectHideFlags: 0
  m_CorrespondingSourceObject: {fileID: 0}
  m_PrefabInstance: {fileID: 0}
  m_PrefabAsset: {fileID: 0}
  m_GameObject: {fileID: 2604346473654797245}
  m_LocalRotation: {x: 0, y: 0, z: 0, w: 1}
  m_LocalPosition: {x: 2.6499999, y: -0.08999999, z: 0.63}
  m_LocalScale: {x: 0.5239, y: 0.5239, z: 0.5239}
  m_Children: []
  m_Father: {fileID: 0}
  m_RootOrder: 0
  m_LocalEulerAnglesHint: {x: 0, y: 0, z: 0}
--- !u!212 &2604346473654797218
SpriteRenderer:
  m_ObjectHideFlags: 0
  m_CorrespondingSourceObject: {fileID: 0}
  m_PrefabInstance: {fileID: 0}
  m_PrefabAsset: {fileID: 0}
  m_GameObject: {fileID: 2604346473654797245}
  m_Enabled: 1
  m_CastShadows: 0
  m_ReceiveShadows: 0
  m_DynamicOccludee: 1
  m_MotionVectors: 1
  m_LightProbeUsage: 1
  m_ReflectionProbeUsage: 1
  m_RenderingLayerMask: 1
  m_RendererPriority: 0
  m_Materials:
  - {fileID: 10754, guid: 0000000000000000f000000000000000, type: 0}
  m_StaticBatchInfo:
    firstSubMesh: 0
    subMeshCount: 0
  m_StaticBatchRoot: {fileID: 0}
  m_ProbeAnchor: {fileID: 0}
  m_LightProbeVolumeOverride: {fileID: 0}
  m_ScaleInLightmap: 1
  m_ReceiveGI: 1
  m_PreserveUVs: 0
  m_IgnoreNormalsForChartDetection: 0
  m_ImportantGI: 0
  m_StitchLightmapSeams: 1
  m_SelectedEditorRenderState: 0
  m_MinimumChartSize: 4
  m_AutoUVMaxDistance: 0.5
  m_AutoUVMaxAngle: 89
  m_LightmapParameters: {fileID: 0}
  m_SortingLayerID: 0
  m_SortingLayer: 0
  m_SortingOrder: 1
  m_Sprite: {fileID: 21300000, guid: c4b2e2c9f19dd1e43b1f413c0c8b3076, type: 3}
  m_Color: {r: 1, g: 1, b: 1, a: 1}
  m_FlipX: 0
  m_FlipY: 0
  m_DrawMode: 0
  m_Size: {x: 5.34, y: 5.36}
  m_AdaptiveModeThreshold: 0.5
  m_SpriteTileMode: 0
  m_WasSpriteAssigned: 1
  m_MaskInteraction: 0
  m_SpriteSortPoint: 0
--- !u!60 &2604346473654797217
PolygonCollider2D:
  m_ObjectHideFlags: 0
  m_CorrespondingSourceObject: {fileID: 0}
  m_PrefabInstance: {fileID: 0}
  m_PrefabAsset: {fileID: 0}
  m_GameObject: {fileID: 2604346473654797245}
  m_Enabled: 1
  m_Density: 1
  m_Material: {fileID: 0}
  m_IsTrigger: 0
  m_UsedByEffector: 0
  m_UsedByComposite: 0
  m_Offset: {x: 0, y: 0}
  m_SpriteTilingProperty:
    border: {x: 0, y: 0, z: 0, w: 0}
    pivot: {x: 0.5, y: 0.5}
    oldSize: {x: 5.34, y: 5.36}
    newSize: {x: 5.34, y: 5.36}
    adaptiveTilingThreshold: 0.5
    drawMode: 0
    adaptiveTiling: 0
  m_AutoTiling: 0
  m_Points:
    m_Paths:
    - - {x: 0.78999996, y: -1.99}
      - {x: 0.88, y: -1.9499999}
      - {x: 1.05, y: -1.81}
      - {x: 1.15, y: -1.75}
      - {x: 1.25, y: -1.68}
      - {x: 1.39, y: -1.56}
      - {x: 1.5899999, y: -1.36}
      - {x: 1.68, y: -1.26}
      - {x: 1.78, y: -1.12}
      - {x: 1.8399999, y: -1.02}
      - {x: 1.9399999, y: -0.81}
      - {x: 1.99, y: -0.69}
      - {x: 2.03, y: -0.56}
      - {x: 2.1, y: -0.28}
      - {x: 2.12, y: -0.08}
      - {x: 2.11, y: 0.13}
      - {x: 2.1, y: 0.24}
      - {x: 2.1399999, y: 0.26999998}
      - {x: 2.1399999, y: 0.41}
      - {x: 2.08, y: 0.64}
      - {x: 2.05, y: 0.72999996}
      - {x: 1.99, y: 0.89}
      - {x: 1.87, y: 1.13}
      - {x: 1.81, y: 1.23}
      - {x: 1.67, y: 1.42}
      - {x: 1.4699999, y: 1.63}
      - {x: 1.3, y: 1.78}
      - {x: 1.2099999, y: 1.76}
      - {x: 1.05, y: 1.86}
      - {x: 0.84, y: 1.9599999}
      - {x: 0.71999997, y: 2.02}
      - {x: 0.52, y: 2.08}
      - {x: 0.31, y: 2.12}
      - {x: 0.17999999, y: 2.1299999}
      - {x: -0.099999994, y: 2.1299999}
      - {x: -0.22999999, y: 2.12}
      - {x: -0.42999998, y: 2.09}
      - {x: -0.59, y: 2.06}
      - {x: -0.84, y: 1.9699999}
      - {x: -1.14, y: 1.8}
      - {x: -1.1899999, y: 1.76}
      - {x: -1.29, y: 1.75}
      - {x: -1.39, y: 1.68}
      - {x: -1.61, y: 1.4699999}
      - {x: -1.75, y: 1.3}
      - {x: -1.86, y: 1.13}
      - {x: -1.93, y: 1}
      - {x: -1.99, y: 0.87}
      - {x: -2.03, y: 0.77}
      - {x: -2.08, y: 0.65}
      - {x: -2.1399999, y: 0.39999998}
      - {x: -2.1399999, y: 0.25}
      - {x: -2.1, y: 0.21}
      - {x: -2.11, y: -0.089999996}
      - {x: -2.06, y: -0.41}
      - {x: -2.03, y: -0.57}
      - {x: -1.93, y: -0.81}
      - {x: -1.8299999, y: -1.02}
      - {x: -1.77, y: -1.12}
      - {x: -1.6999999, y: -1.22}
      - {x: -1.5799999, y: -1.36}
      - {x: -1.38, y: -1.56}
      - {x: -1.28, y: -1.65}
      - {x: -1.14, y: -1.75}
      - {x: -0.87, y: -1.9}
      - {x: -0.84, y: -1.9599999}
      - {x: -0.57, y: -2.06}
      - {x: -0.38, y: -2.1}
      - {x: -0.17999999, y: -2.1299999}
      - {x: 0.17999999, y: -2.1299999}
      - {x: 0.28, y: -2.12}
      - {x: 0.55, y: -2.08}
      - {x: 0.65999997, y: -2.04}
--- !u!50 &2604346473654797216
Rigidbody2D:
  serializedVersion: 4
  m_ObjectHideFlags: 0
  m_CorrespondingSourceObject: {fileID: 0}
  m_PrefabInstance: {fileID: 0}
  m_PrefabAsset: {fileID: 0}
  m_GameObject: {fileID: 2604346473654797245}
  m_BodyType: 0
  m_Simulated: 1
  m_UseFullKinematicContacts: 0
  m_UseAutoMass: 0
  m_Mass: 1
  m_LinearDrag: 0
  m_AngularDrag: 0.05
  m_GravityScale: 0
  m_Material: {fileID: 0}
  m_Interpolate: 0
  m_SleepingMode: 1
  m_CollisionDetection: 0
  m_Constraints: 4
--- !u!114 &2604346473654797246
MonoBehaviour:
  m_ObjectHideFlags: 0
  m_CorrespondingSourceObject: {fileID: 0}
  m_PrefabInstance: {fileID: 0}
  m_PrefabAsset: {fileID: 0}
  m_GameObject: {fileID: 2604346473654797245}
  m_Enabled: 1
  m_EditorHideFlags: 0
  m_Script: {fileID: 11500000, guid: 57b7d19ecd4767f439523f588dbeea41, type: 3}
  m_Name: 
  m_EditorClassIdentifier: 
  speed2: 30
--- !u!114 &2604346473654797247
MonoBehaviour:
  m_ObjectHideFlags: 0
  m_CorrespondingSourceObject: {fileID: 0}
  m_PrefabInstance: {fileID: 0}
  m_PrefabAsset: {fileID: 0}
  m_GameObject: {fileID: 2604346473654797245}
  m_Enabled: 1
  m_EditorHideFlags: 0
  m_Script: {fileID: 11500000, guid: c704abec22d19c7458a4964ca3ca287e, type: 3}
  m_Name: 
  m_EditorClassIdentifier: 
  count2: 0
  count2Text: {fileID: 0}
  Increase2: 0.1
  decreaseSpeed2: {fileID: 2604346473654797246}
  healthBar2: {fileID: 0}
